rossman-analysis.utf8
…
Sales With Respect To Total Days Of Month

df=df%>%mutate(MonthDays=format(as.Date(Date),"%d"))

sort(unique(df$MonthDays))

##  [1] "01" "02" "03" "04" "05" "06" "07" "08" "09" "10" "11" "12" "13" "14"
## [15] "15" "16" "17" "18" "19" "20" "21" "22" "23" "24" "25" "26" "27" "28"
## [29] "29" "30" "31"

sales_by_monthday=df%>%group_by(MonthDays)%>%summarise(Average_Sales=mean(Sales))
sales_by_monthday

## # A tibble: 31 x 2
##    MonthDays Average_Sales
##    <chr>             <dbl>
##  1 01                8055.
##  2 02                7988.
##  3 03                7766.
##  4 04                7747.
##  5 05                7556.
##  6 06                7150.
##  7 07                7102.
##  8 08                6786.
##  9 09                6500.
## 10 10                6430.
## # ... with 21 more rows
…
##  [1] "Store"                     "DayOfWeek"                
##  [3] "Date"                      "Sales"                    
##  [5] "Customers"                 "Open"                     
##  [7] "Promo"                     "StateHoliday"             
##  [9] "SchoolHoliday"             "StoreType"                
## [11] "Assortment"                "CompetitionDistance"      
## [13] "CompetitionOpenSinceMonth" "CompetitionOpenSinceYear" 
## [15] "Promo2"                    "Promo2SinceWeek"          
## [17] "Promo2SinceYear"           "PromoInterval"            
## [19] "Month"                     "MonthDays"

sales_by_month_date_days=df%>%group_by(MonthDays,Month)%>%summarise(Average_Sales=mean(Sales))
sales_by_month_date_days

## # A tibble: 365 x 3
## # Groups:   MonthDays [31]
##    MonthDays Month Average_Sales
##    <chr>     <chr>         <dbl>
##  1 01        01            6519.
##  2 01        02            6412.
##  3 01        03            6484.
##  4 01        04            9052.
##  5 01        05           12126.
##  6 01        06            8370.
##  7 01        07            8863.
##  8 01        08            7984.
##  9 01        09           10394.
## 10 01        10            7018.
## # ... with 355 more rows
…
